{
  "main.css": "/static/css/main.377baa43.chunk.css",
  "main.js": "/static/js/main.b4d2d8c8.chunk.js",
  "main.js.map": "/static/js/main.b4d2d8c8.chunk.js.map",
  "static/css/1.98b44bac.chunk.css": "/static/css/1.98b44bac.chunk.css",
  "static/js/1.aeb33df3.chunk.js": "/static/js/1.aeb33df3.chunk.js",
  "static/js/1.aeb33df3.chunk.js.map": "/static/js/1.aeb33df3.chunk.js.map",
  "runtime~main.js": "/static/js/runtime~main.229c360f.js",
  "runtime~main.js.map": "/static/js/runtime~main.229c360f.js.map",
  "static/css/1.98b44bac.chunk.css.map": "/static/css/1.98b44bac.chunk.css.map",
  "static/css/main.377baa43.chunk.css.map": "/static/css/main.377baa43.chunk.css.map",
  "index.html": "/index.html",
  "precache-manifest.55c559a6b45dd3f9c5af0304c018f04f.js": "/precache-manifest.55c559a6b45dd3f9c5af0304c018f04f.js",
  "service-worker.js": "/service-worker.js"
}