{
  "main.css": "/static/css/main.377baa43.chunk.css",
  "main.js": "/static/js/main.850925ed.chunk.js",
  "main.js.map": "/static/js/main.850925ed.chunk.js.map",
  "static/css/1.d36f379a.chunk.css": "/static/css/1.d36f379a.chunk.css",
  "static/js/1.e5fb6957.chunk.js": "/static/js/1.e5fb6957.chunk.js",
  "static/js/1.e5fb6957.chunk.js.map": "/static/js/1.e5fb6957.chunk.js.map",
  "runtime~main.js": "/static/js/runtime~main.229c360f.js",
  "runtime~main.js.map": "/static/js/runtime~main.229c360f.js.map",
  "static/css/1.d36f379a.chunk.css.map": "/static/css/1.d36f379a.chunk.css.map",
  "static/css/main.377baa43.chunk.css.map": "/static/css/main.377baa43.chunk.css.map",
  "index.html": "/index.html",
  "precache-manifest.a5e789be2906be97051e2a7fdddd79b5.js": "/precache-manifest.a5e789be2906be97051e2a7fdddd79b5.js",
  "service-worker.js": "/service-worker.js"
}